{
  "project_info": {
    "project_number": "688733179280",
    "firebase_url": "https://todoist-51692.firebaseio.com",
    "project_id": "todoist-51692",
    "storage_bucket": "todoist-51692.appspot.com"
  },
  "client": [
    {
      "client_info": {
        "mobilesdk_app_id": "1:688733179280:android:ce4ffcbfd30e76e14a7715",
        "android_client_info": {
          "package_name": "com.example.appbev"
        }
      },
      "oauth_client": [
        {
          "client_id": "688733179280-5noja41q9q8ouskkj7068loa5g0mrup1.apps.googleusercontent.com",
          "client_type": 3
        }
      ],
      "api_key": [
        {
          "current_key": "AIzaSyCKv_5WpVqTE1HUUtHy-TZxfWXHIl39D0c"
        }
      ],
      "services": {
        "appinvite_service": {
          "other_platform_oauth_client": [
            {
              "client_id": "688733179280-5noja41q9q8ouskkj7068loa5g0mrup1.apps.googleusercontent.com",
              "client_type": 3
            }
          ]
        }
      }
    }
  ],
  "configuration_version": "1"
}